﻿id,name_mm,name_en,phonetic,audio,filename,description,updated_date,created_date
1,နာမည္ဘယ္လိုေခၚလဲ,Whar is your name?,bal lo khaw lae,http://localhost/travel/images/phrasebook/upload/popup3.mp3,popup3.mp3,description here,29/07/2015,29/07/2015
2,ဘယ္မွာေနလဲ,Where do u live?,bal mhar nay lae,http://localhost/travel/images/phrasebook/upload/popup4.mp3,popup4.mp3,Description is here,30/07/2015,30/07/2015
3,ဘယ္မွာေနလဲ,Where do u live?,bal mhar nay lae,http://localhost/travel/images/phrasebook/upload/popup4.mp3,popup4.mp3,Description is here,29/07/2015,29/07/2015
