id,cityId,city,tagId,tag,categoryId,category,description,image,image_url,updated_date,created_date
1,2,Yangon,2,places,2,restaurant,description here,yangon9.png,http://localhost/travel/images/info/upload/yangon9.png,7/24/2015,7/24/2015
2,2,Yangon,2,places,2,restaurant,ffffghfghfg,yangon3.png,http://localhost/travel/images/info/upload/yangon3.png,7/24/2015,7/24/2015
3,2,Yangon,2,places,2,restaurant,ffffghfghfg,yangon4.png,http://localhost/travel/images/info/upload/yangon4.png,7/24/2015,7/24/2015
4,2,Yangon,2,places,2,restaurant,sdfsdfsdf,yangon7.png,http://localhost/travel/images/info/upload/yangon7.png,7/24/2015,7/24/2015
5,2,Yangon,1,to do,2,restaurant,<p><em><strong>you should write description  here</strong></em></p>,taunggyi.jpg,http://localhost/travel/images/info/upload/taunggyi.jpg,7/27/2015,7/27/2015
