id,cityId,city_name,tagId,tag_keyword,categoryId,category,description,image,image_url,updated_date,created_date
1,1,Yangon,2,wonderful places,2,hotels,description here,yangon9.png,http://localhost/travel/images/info/upload/yangon9.png,28/07/2015,28/07/2015
2,1,Yangon,2,wonderful places,2,hotels,ffffghfghfg,yangon3.png,http://localhost/travel/images/info/upload/yangon3.png,30/07/2015,30/07/2015
3,2,Mandalay,2,wonderful places,2,hotels,ffffghfghfg,yangon4.png,http://localhost/travel/images/info/upload/yangon4.png,28/07/2015,28/07/2015
4,2,Mandalay,2,wonderful places,2,hotels,sdfsdfsdf,yangon7.png,http://localhost/travel/images/info/upload/yangon7.png,28/07/2015,28/07/2015
5,2,Mandalay,1,to do,2,hotels,<p><em><strong>you should write description  here</strong></em></p>,taunggyi.jpg,http://localhost/travel/images/info/upload/taunggyi.jpg,30/07/2015,30/07/2015
