id,name_mm,name_en,phonetic,audio,filename,description,updated_date,created_date
3,နာမည္ဘယ္လိုေခၚလဲ,Whar is your name?,bal lo khaw lae,http://localhost/travel/images/phrasebook/upload/popup3.mp3,popup3.mp3,description here,7/22/2015,7/22/2015
4,ဘယ္မွာေနလဲ,Where do u live?,bal mhar nay lae,http://localhost/travel/images/phrasebook/upload/popup4.mp3,popup4.mp3,Description is here,7/24/2015,7/24/2015
