id,name,image,image_url,updated_date,created_date
1,Yangon,yangon.png,http://localhost/travel/images/culture/upload/yangon.png,14/08/2015,14/08/2015
2,Mandalay,mandalay_palace.jpg,http://localhost/travel/images/culture/upload/mandalay_palace.jpg,17/08/2015,17/08/2015
