id,cityId,city_name,tagId,tag_keyword,name,rating,description,address,phone,fax,email,website,image,image_url,logo,logo_url,longitude,latitude,updated_date,created_date
1,1,Yangon,1-2-,walking-,Novotel,,,No1- block2- Pyay road- Yangon,134234234,2.22E+12,novotel@gmail.com,novotel.com,novotel.jpg,http://localhost/travel/images/hotel/upload/novotel.jpg,novotel.jpg,http://localhost/travel/images/hotel/upload/logo/novotel.jpg,96.132,16.8202,03/09/2015,03/09/2015
2,1,Yangon,1-2-5-6-3-7-8-,walking-,Mya Yeik Nyo,,,No19- Kabar aye road- Yangon,134234234,2.22E+12,myayeiknyo@gmail.com,myayeiknyo.com.mm,mya_yeik_nyo.jpg,http://localhost/travel/images/hotel/upload/mya_yeik_nyo.jpg,mya_yeik_nyo.jpg,http://localhost/travel/images/hotel/upload/logo/mya_yeik_nyo.jpg,96.1504,16.8303,03/09/2015,03/09/2015
3,1,Yangon,1-2-3-,walking-,Sedona Hotel,,,yangon- No19- block2- university road- Yangon,134234234,234234234,sedona@gmail.com,sedona.com.com,sedona3.jpg,http://localhost/travel/images/hotel/upload/sedona3.jpg,sedona.jpg,http://localhost/travel/images/hotel/upload/logo/sedona.jpg,96.1555,16.8298,03/09/2015,03/09/2015
