id,cityId,city,tagId,tag,name,description,address,image,image_url,longitude,latitude,updated_date,created_date
3,1,Yangon,2,places,dffgfgfgdfs,sdfsdfsdfsdfs,gfdg,mandalay6.jpg,http://localhost/travel/images/attraction/upload/mandalay6.jpg,0,0,28/07/2015,28/07/2015
4,1,Yangon,3,to stay,Shwe Da Gon,Shwe Da Gon is..`,Ba Ha,yangon1.png,http://localhost/travel/images/attraction/upload/yangon1.png,1,1,28/07/2015,28/07/2015
7,1,Yangon,2,places,dffgfgfgdfs,sdfsdfsdfsdfs,gfdg,,,0,0,28/07/2015,28/07/2015
