id,cityId,city,tagId,tag,name,category,description,address,longitude,latitude,updated_date,created_date
1,2,Mandalay,5,places,pagonda,,<p>description here</p>,mandalay,3,3,28/07/2015,28/07/2015
2,3,Shwe bo,2,places,water fall,,<p>description here</p>,shwe bo,5,5,28/07/2015,28/07/2015
3,2,Mandalay,2,places,shopping,,<p>descrition here</p>,shwe bo,6,6,28/07/2015,28/07/2015
4,1,Yangon,3,to stay,Shwe Da Gon,,<p>Shwe Da Gon is..`</p>,Ba Han,1,1,28/07/2015,28/07/2015
5,1,Yangon,2,places,dffgfgfgdfs,,sdfsdfsdfsdfs,gfdg,0,0,28/07/2015,28/07/2015
