id,cityId,city_name,tagId,tag_keyword,name,category,description,address,longitude,latitude,updated_date,created_date
1,2,Mandalay,5,places,pagonda,,<p>description here</p>,mandalay,3,3,28/07/2015,28/07/2015
2,2,Mandalay,2,wonderful places,shopping,,<p>descrition here</p>,shwe bo,6,6,28/07/2015,28/07/2015
3,2,Mandalay,2,wonderful places,shopping,,<p>descrition here</p>,shwe bo,6,6,28/07/2015,28/07/2015
4,1,Yangon,3,to stay,Shwe Da Gon,,<p>Shwe Da Gon is..`</p>,Ba Han,1,1,28/07/2015,28/07/2015
5,1,Yangon,1,to do,strolling,,description is here,monywa,4,3,28/07/2015,28/07/2015
6,3,Shwe bo,2,wonderful places,walking,,<p>desription is here</p>,shwe bo,4,4,30/07/2015,30/07/2015
7,1,Yangon,2,wonderful places,sight seeing,,sight seeing description is here,yangon,5,4,29/07/2015,29/07/2015
8,1,Yangon,1,to do,strolling,,description is here,monywa,4,3,28/07/2015,28/07/2015
9,1,Yangon,1,to do,testing,,description is here,monywa,3,3,28/07/2015,28/07/2015
10,1,Yangon,2,wonderful places,sight seeing,,sight seeing description is here,yangon,5,4,29/07/2015,29/07/2015
