id,category,keyword,updated_date,created_date
1,activities,to do,27/07/2015,27/07/2015
2,attraction,wonderful places,27/07/2015,27/07/2015
3,activities,to stay,27/07/2015,27/07/2015
4,restaurant,eat,27/07/2015,27/07/2015
5,attraction,places,27/07/2015,27/07/2015
6,attraction,places,27/07/2015,27/07/2015
