
<div style="border:1px solid #990000;padding-left:20px;margin:0 0 10px 0;">

<h4>A PHP Error was encountered</h4>

<p>Severity: Notice</p>
<p>Message:  Undefined index: price</p>
<p>Filename: restaurant/export.php</p>
<p>Line Number: 33</p>


	<p>Backtrace:</p>
	
		
	
		
	
		
			<p style="margin-left:10px">
			File: C:\xampp\htdocs\travel\application\views\admin\restaurant\export.php<br />
			Line: 33<br />
			Function: _error_handler			</p>

		
	
		
	
		
	
		
			<p style="margin-left:10px">
			File: C:\xampp\htdocs\travel\application\controllers\admin\Restaurant.php<br />
			Line: 271<br />
			Function: view			</p>

		
	
		
	
		
	
		
			<p style="margin-left:10px">
			File: C:\xampp\htdocs\travel\index.php<br />
			Line: 292<br />
			Function: require_once			</p>

		
	

</div>
<div style="border:1px solid #990000;padding-left:20px;margin:0 0 10px 0;">

<h4>A PHP Error was encountered</h4>

<p>Severity: Notice</p>
<p>Message:  Undefined index: price</p>
<p>Filename: restaurant/export.php</p>
<p>Line Number: 33</p>


	<p>Backtrace:</p>
	
		
	
		
	
		
			<p style="margin-left:10px">
			File: C:\xampp\htdocs\travel\application\views\admin\restaurant\export.php<br />
			Line: 33<br />
			Function: _error_handler			</p>

		
	
		
	
		
	
		
			<p style="margin-left:10px">
			File: C:\xampp\htdocs\travel\application\controllers\admin\Restaurant.php<br />
			Line: 271<br />
			Function: view			</p>

		
	
		
	
		
	
		
			<p style="margin-left:10px">
			File: C:\xampp\htdocs\travel\index.php<br />
			Line: 292<br />
			Function: require_once			</p>

		
	

</div>
<div style="border:1px solid #990000;padding-left:20px;margin:0 0 10px 0;">

<h4>A PHP Error was encountered</h4>

<p>Severity: Notice</p>
<p>Message:  Undefined index: price</p>
<p>Filename: restaurant/export.php</p>
<p>Line Number: 33</p>


	<p>Backtrace:</p>
	
		
	
		
	
		
			<p style="margin-left:10px">
			File: C:\xampp\htdocs\travel\application\views\admin\restaurant\export.php<br />
			Line: 33<br />
			Function: _error_handler			</p>

		
	
		
	
		
	
		
			<p style="margin-left:10px">
			File: C:\xampp\htdocs\travel\application\controllers\admin\Restaurant.php<br />
			Line: 271<br />
			Function: view			</p>

		
	
		
	
		
	
		
			<p style="margin-left:10px">
			File: C:\xampp\htdocs\travel\index.php<br />
			Line: 292<br />
			Function: require_once			</p>

		
	

</div>
<div style="border:1px solid #990000;padding-left:20px;margin:0 0 10px 0;">

<h4>A PHP Error was encountered</h4>

<p>Severity: Notice</p>
<p>Message:  Undefined index: price</p>
<p>Filename: restaurant/export.php</p>
<p>Line Number: 33</p>


	<p>Backtrace:</p>
	
		
	
		
	
		
			<p style="margin-left:10px">
			File: C:\xampp\htdocs\travel\application\views\admin\restaurant\export.php<br />
			Line: 33<br />
			Function: _error_handler			</p>

		
	
		
	
		
	
		
			<p style="margin-left:10px">
			File: C:\xampp\htdocs\travel\application\controllers\admin\Restaurant.php<br />
			Line: 271<br />
			Function: view			</p>

		
	
		
	
		
	
		
			<p style="margin-left:10px">
			File: C:\xampp\htdocs\travel\index.php<br />
			Line: 292<br />
			Function: require_once			</p>

		
	

</div>
<div style="border:1px solid #990000;padding-left:20px;margin:0 0 10px 0;">

<h4>A PHP Error was encountered</h4>

<p>Severity: Notice</p>
<p>Message:  Undefined index: price</p>
<p>Filename: restaurant/export.php</p>
<p>Line Number: 33</p>


	<p>Backtrace:</p>
	
		
	
		
	
		
			<p style="margin-left:10px">
			File: C:\xampp\htdocs\travel\application\views\admin\restaurant\export.php<br />
			Line: 33<br />
			Function: _error_handler			</p>

		
	
		
	
		
	
		
			<p style="margin-left:10px">
			File: C:\xampp\htdocs\travel\application\controllers\admin\Restaurant.php<br />
			Line: 271<br />
			Function: view			</p>

		
	
		
	
		
	
		
			<p style="margin-left:10px">
			File: C:\xampp\htdocs\travel\index.php<br />
			Line: 292<br />
			Function: require_once			</p>

		
	

</div>
<div style="border:1px solid #990000;padding-left:20px;margin:0 0 10px 0;">

<h4>A PHP Error was encountered</h4>

<p>Severity: Notice</p>
<p>Message:  Undefined index: price</p>
<p>Filename: restaurant/export.php</p>
<p>Line Number: 33</p>


	<p>Backtrace:</p>
	
		
	
		
	
		
			<p style="margin-left:10px">
			File: C:\xampp\htdocs\travel\application\views\admin\restaurant\export.php<br />
			Line: 33<br />
			Function: _error_handler			</p>

		
	
		
	
		
	
		
			<p style="margin-left:10px">
			File: C:\xampp\htdocs\travel\application\controllers\admin\Restaurant.php<br />
			Line: 271<br />
			Function: view			</p>

		
	
		
	
		
	
		
			<p style="margin-left:10px">
			File: C:\xampp\htdocs\travel\index.php<br />
			Line: 292<br />
			Function: require_once			</p>

		
	

</div>
<div style="border:1px solid #990000;padding-left:20px;margin:0 0 10px 0;">

<h4>A PHP Error was encountered</h4>

<p>Severity: Notice</p>
<p>Message:  Undefined index: price</p>
<p>Filename: restaurant/export.php</p>
<p>Line Number: 33</p>


	<p>Backtrace:</p>
	
		
	
		
	
		
			<p style="margin-left:10px">
			File: C:\xampp\htdocs\travel\application\views\admin\restaurant\export.php<br />
			Line: 33<br />
			Function: _error_handler			</p>

		
	
		
	
		
	
		
			<p style="margin-left:10px">
			File: C:\xampp\htdocs\travel\application\controllers\admin\Restaurant.php<br />
			Line: 271<br />
			Function: view			</p>

		
	
		
	
		
	
		
			<p style="margin-left:10px">
			File: C:\xampp\htdocs\travel\index.php<br />
			Line: 292<br />
			Function: require_once			</p>

		
	

</div>
<div style="border:1px solid #990000;padding-left:20px;margin:0 0 10px 0;">

<h4>A PHP Error was encountered</h4>

<p>Severity: Notice</p>
<p>Message:  Undefined index: price</p>
<p>Filename: restaurant/export.php</p>
<p>Line Number: 33</p>


	<p>Backtrace:</p>
	
		
	
		
	
		
			<p style="margin-left:10px">
			File: C:\xampp\htdocs\travel\application\views\admin\restaurant\export.php<br />
			Line: 33<br />
			Function: _error_handler			</p>

		
	
		
	
		
	
		
			<p style="margin-left:10px">
			File: C:\xampp\htdocs\travel\application\controllers\admin\Restaurant.php<br />
			Line: 271<br />
			Function: view			</p>

		
	
		
	
		
	
		
			<p style="margin-left:10px">
			File: C:\xampp\htdocs\travel\index.php<br />
			Line: 292<br />
			Function: require_once			</p>

		
	

</div>
<div style="border:1px solid #990000;padding-left:20px;margin:0 0 10px 0;">

<h4>A PHP Error was encountered</h4>

<p>Severity: Notice</p>
<p>Message:  Undefined index: price</p>
<p>Filename: restaurant/export.php</p>
<p>Line Number: 33</p>


	<p>Backtrace:</p>
	
		
	
		
	
		
			<p style="margin-left:10px">
			File: C:\xampp\htdocs\travel\application\views\admin\restaurant\export.php<br />
			Line: 33<br />
			Function: _error_handler			</p>

		
	
		
	
		
	
		
			<p style="margin-left:10px">
			File: C:\xampp\htdocs\travel\application\controllers\admin\Restaurant.php<br />
			Line: 271<br />
			Function: view			</p>

		
	
		
	
		
	
		
			<p style="margin-left:10px">
			File: C:\xampp\htdocs\travel\index.php<br />
			Line: 292<br />
			Function: require_once			</p>

		
	

</div>id,cityId,city_name,tagId,tag_keyword,classification,name,rating,description,promotion,address,price_range,phone,fax,email,website,image,image_url,logo,logo_url,longitude,latitude,updated_date,created_date
1,1,Yangon,1-2-3-,walking-staying-relaxing-,ddaf,fuji House cafe,,A restaurant  is a  business which prepares and serves food and drinks to customers in exchange for money- either paid before the meal- after the meal- or with an open account. Meals are generally served and eaten on premises- but many restaurants also offer take out and food delivery servies Restaurants vary greatly in appearance and offerings- including a wide variety of cuise and  service models ranging from inexpensive fast food restaurants to high-priced luxury establishments. In Western countries- most mid- to high-range restaurants serve alcoholic beverages such as beer and wine. Some restaurants serve all the major meals- such as breakfase lunch and dinner (e.g.- major fast food chains- hotel restaurants and airport restaurants). Other restaurants may only serve a single meal (e.g.- a pancake house may only serve breakfast) or they may serve two meals (e.g.- lunch and dinner).,no,yangon,,9324234,2222222222222,fujihouse@gmail.com,fujihouse.com.mm,Fuji_coffee_house1.png,http://localhost/travel/images/restaurant/upload/Fuji_coffee_house1.png,Fuji_coffee_house1.png,http://localhost/travel/images/restaurant/upload/Fuji_coffee_house1.png,96.1432,16.825,02/09/2015,20/08/2015
2,1,Yangon,1-9-,walking-eating-,1,YKKO,,A restaurant  is a  business which prepares and serves food and drinks to customers in exchange for money- either paid before the meal- after the meal- or with an open account. Meals are generally served and eaten on premises- but many restaurants also offer take out and food delivery servies Restaurants vary greatly in appearance and offerings- including a wide variety of cuise and  service models ranging from inexpensive fast food restaurants to high-priced luxury establishments. In Western countries- most mid- to high-range restaurants serve alcoholic beverages such as beer and wine. Some restaurants serve all the major meals- such as breakfase lunch and dinner (e.g.- major fast food chains- hotel restaurants and airport restaurants). Other restaurants may only serve a single meal (e.g.- a pancake house may only serve breakfast) or they may serve two meals (e.g.- lunch and dinner).,no,yangon,,9334543543,234234234,ykko@gmail.com,ykko.com.mm,ykko.jpg,http://localhost/travel/images/restaurant/upload/ykko.jpg,logo1.png,http://localhost/travel/images/restaurant/upload/logo/logo1.png,96.1295,16.8294,02/09/2015,20/08/2015
3,1,Yangon,1-9-,walking-eating-,1,season,,A restaurant  is a  business which prepares and serves food and drinks to customers in exchange for money- either paid before the meal- after the meal- or with an open account. Meals are generally served and eaten on premises- but many restaurants also offer take out and food delivery servies Restaurants vary greatly in appearance and offerings- including a wide variety of cuise and  service models ranging from inexpensive fast food restaurants to high-priced luxury establishments. In Western countries- most mid- to high-range restaurants serve alcoholic beverages such as beer and wine. Some restaurants serve all the major meals- such as breakfase lunch and dinner (e.g.- major fast food chains- hotel restaurants and airport restaurants). Other restaurants may only serve a single meal (e.g.- a pancake house may only serve breakfast) or they may serve two meals (e.g.- lunch and dinner).,no,yangon,,0934324234,2222222222222,season@gmail.com,season.com,season.jpg,http://localhost/travel/images/restaurant/upload/season.jpg,logo2.png,http://localhost/travel/images/restaurant/upload/logo/logo2.png,96.1452,16.7749,02/09/2015,20/08/2015
4,1,Yangon,1-,walking-,asdsa,Shan Yoe Yar,,A restaurant  is a  business which prepares and serves food and drinks to customers in exchange for money- either paid before the meal- after the meal- or with an open account. Meals are generally served and eaten on premises- but many restaurants also offer take out and food delivery servies Restaurants vary greatly in appearance and offerings- including a wide variety of cuise and  service models ranging from inexpensive fast food restaurants to high-priced luxury establishments. In Western countries- most mid- to high-range restaurants serve alcoholic beverages such as beer and wine. Some restaurants serve all the major meals- such as breakfase lunch and dinner (e.g.- major fast food chains- hotel restaurants and airport restaurants). Other restaurants may only serve a single meal (e.g.- a pancake house may only serve breakfast) or they may serve two meals (e.g.- lunch and dinner).,,yangon,,96787678,2342342342,shanyoeyar@gmail.com,shanyoeyar.com,shan_yoe_yar.jpg,http://localhost/travel/images/restaurant/upload/shan_yoe_yar.jpg,logo3.png,http://localhost/travel/images/restaurant/upload/logo/logo3.png,96.1393,16.7811,20/08/2015,20/08/2015
5,1,Yangon,2-,staying-,1,season2,,A restaurant  is a  business which prepares and serves food and drinks to customers in exchange for money- either paid before the meal- after the meal- or with an open account. Meals are generally served and eaten on premises- but many restaurants also offer take out and food delivery servies Restaurants vary greatly in appearance and offerings- including a wide variety of cuise and  service models ranging from inexpensive fast food restaurants to high-priced luxury establishments. In Western countries- most mid- to high-range restaurants serve alcoholic beverages such as beer and wine. Some restaurants serve all the major meals- such as breakfase lunch and dinner (e.g.- major fast food chains- hotel restaurants and airport restaurants). Other restaurants may only serve a single meal (e.g.- a pancake house may only serve breakfast) or they may serve two meals (e.g.- lunch and dinner).,no,yangon,,934324234,,,0,sedona2.jpg,http://localhost/travel/images/restaurant/upload/sedona2.jpg,sedona2.jpg,http://localhost/travel/images/restaurant/upload/sedona2.jpg,1,1,20/08/2015,20/08/2015
6,1,Yangon,1-,walking-,1,season3,,A restaurant  is a  business which prepares and serves food and drinks to customers in exchange for money- either paid before the meal- after the meal- or with an open account. Meals are generally served and eaten on premises- but many restaurants also offer take out and food delivery servies Restaurants vary greatly in appearance and offerings- including a wide variety of cuise and  service models ranging from inexpensive fast food restaurants to high-priced luxury establishments. In Western countries- most mid- to high-range restaurants serve alcoholic beverages such as beer and wine. Some restaurants serve all the major meals- such as breakfase lunch and dinner (e.g.- major fast food chains- hotel restaurants and airport restaurants). Other restaurants may only serve a single meal (e.g.- a pancake house may only serve breakfast) or they may serve two meals (e.g.- lunch and dinner).,no,yangon,,934324234,34234234234234234,someone@gmail.com,somerestaurant.com,taunggyi1.jpg,http://localhost/travel/images/restaurant/upload/taunggyi1.jpg,taunggyi1.jpg,http://localhost/travel/images/restaurant/upload/taunggyi1.jpg,1,1,20/08/2015,20/08/2015
7,1,Yangon,3-,relaxing-,,traders,,A restaurant  is a  business which prepares and serves food and drinks to customers in exchange for money- either paid before the meal- after the meal- or with an open account. Meals are generally served and eaten on premises- but many restaurants also offer take out and food delivery servies Restaurants vary greatly in appearance and offerings- including a wide variety of cuise and  service models ranging from inexpensive fast food restaurants to high-priced luxury establishments. In Western countries- most mid- to high-range restaurants serve alcoholic beverages such as beer and wine. Some restaurants serve all the major meals- such as breakfase lunch and dinner (e.g.- major fast food chains- hotel restaurants and airport restaurants). Other restaurants may only serve a single meal (e.g.- a pancake house may only serve breakfast) or they may serve two meals (e.g.- lunch and dinner).,,mandalay,,0134234234,2222222222222,yangon@gmail.com,yangonhotel.com,logo21.jpg,http://localhost/travel/images/restaurant/upload/logo21.jpg,Shopping_004020.png,http://localhost/travel/images/restaurant/upload/logo/Shopping_004020.png,0,0,20/08/2015,20/08/2015
8,1,Yangon,1-,walking-,,traders,,A restaurant  is a  business which prepares and serves food and drinks to customers in exchange for money- either paid before the meal- after the meal- or with an open account. Meals are generally served and eaten on premises- but many restaurants also offer take out and food delivery servies Restaurants vary greatly in appearance and offerings- including a wide variety of cuise and  service models ranging from inexpensive fast food restaurants to high-priced luxury establishments. In Western countries- most mid- to high-range restaurants serve alcoholic beverages such as beer and wine. Some restaurants serve all the major meals- such as breakfase lunch and dinner (e.g.- major fast food chains- hotel restaurants and airport restaurants). Other restaurants may only serve a single meal (e.g.- a pancake house may only serve breakfast) or they may serve two meals (e.g.- lunch and dinner).,,mandalay,,0134234234,2222222222222,yangon@gmail.com,yangonhotel.com,mandalay_hotel_18211.jpg,http://localhost/travel/images/restaurant/upload/mandalay_hotel_18211.jpg,mandalay_hotel_18211.jpg,http://localhost/travel/images/restaurant/upload/mandalay_hotel_18211.jpg,0,0,20/08/2015,20/08/2015
9,1,Yangon,1-2-4-,walking-staying-swimming-,1,yangon,,A restaurant  is a  business which prepares and serves food and drinks to customers in exchange for money- either paid before the meal- after the meal- or with an open account. Meals are generally served and eaten on premises- but many restaurants also offer take out and food delivery servies Restaurants vary greatly in appearance and offerings- including a wide variety of cuise and  service models ranging from inexpensive fast food restaurants to high-priced luxury establishments. In Western countries- most mid- to high-range restaurants serve alcoholic beverages such as beer and wine. Some restaurants serve all the major meals- such as breakfase lunch and dinner (e.g.- major fast food chains- hotel restaurants and airport restaurants). Other restaurants may only serve a single meal (e.g.- a pancake house may only serve breakfast) or they may serve two meals (e.g.- lunch and dinner).,,yangon,,0134234234,123456789,chanmyaesoe22@gmail.com,yangonhotel.com,yangon1_31247.png,http://localhost/travel/images/restaurant/upload/yangon1_31247.png,yangon1_31247.png,http://localhost/travel/images/restaurant/upload/yangon1_31247.png,1,121,20/08/2015,20/08/2015
