id,cityId,city_name,tagId,tag_keyword,name,rating,description,address,longitude,latitude,updated_date,created_date
1,1,Yangon,13-,cinema-,Thamada,,,yangon,96.1588,16.7824,02/09/2015,30/07/2015
2,1,Yangon,4-,swimming-,University swimming pool,,,Mandalay,96.137,16.8345,02/09/2015,30/07/2015
3,2,Mandalay,12-,visiting-,Shwe Da Gon,1,,Yangon,96.1487,16.7984,02/09/2015,30/07/2015
4,1,Yangon,11-,shoppig-,junction square,,,yangon,96.131,16.8171,10/08/2015,10/08/2015
5,1,Yangon,9-,eating-,YKKO,,,yangon,96.1633,16.7779,28/08/2015,28/08/2015
