id,name,code,description,updated_date,created_date
1,Post Office,A110,<p>description here</p>,28/07/2015,28/07/2015
2,Police station,E200,<p>description here</p>,28/07/2015,28/07/2015
3,Money Changer,E100,<p>descrition here</p>,28/07/2015,28/07/2015
4,Hospital,D200,<p>Shwe Da Gon is..`</p>,28/07/2015,28/07/2015
5,Embassy,D100,swimming descriptionis here,28/07/2015,28/07/2015
