id,cityId,city,tagId,tag,description,detail,updated_date,created_date
2,1,Yangon,1,to do,ssfsd,descriptioin here,28/07/2015,28/07/2015
3,1,Yangon,1,to do,description here,Detail here,28/07/2015,28/07/2015
5,1,Yangon,1,to do,dasdasdasdasdsd,asdadas,28/07/2015,28/07/2015
6,1,Yangon,1,to do,dasdasdasdasdsd,asdadas,28/07/2015,28/07/2015
