id,cityId,city_name,tagId,tag_keyword,name,rating,description,address,phone,fax,email,website,image,image_url,logo,logo_url,longitude,latitude,updated_date,created_date
1,1,Yangon,1-2-,walking-staying-,Novotel,,Small to medium-sized hotel establishments offer a limited amount of on-site amenties.Economy hotels are small to medium-sized hotel establishments that offer basic accommodations with little to no services. Extended hotelss are small to medium-sized hotels that offer longer term full service accommodations compared to a traditional hotel.,No1- block2- Pyay road- Yangon,134234234,2.22E+12,novotel@gmail.com,novotel.com,novotel.jpg,http://localhost/travel/images/hotel/upload/novotel.jpg,novotel.jpg,http://localhost/travel/images/hotel/upload/logo/novotel.jpg,96.132,16.8202,2/9/2015,26/08/2015
2,1,Yangon,1-2-5-6-3-7-8-,walking-staying-sightseeing-strolling-relaxing-tagging1-tagging-,Mya Yeik Nyo,,Small to medium-sized hotel establishments offer a limited amount of on-site amenties.Economy hotels are small to medium-sized hotel establishments that offer basic accommodations with little to no services. Extended hotelss are small to medium-sized hotels that offer longer term full service accommodations compared to a traditional hotel.,No19- Kabar aye road- Yangon,134234234,2.22E+12,myayeiknyo@gmail.com,myayeiknyo.com.mm,mya_yeik_nyo.jpg,http://localhost/travel/images/hotel/upload/mya_yeik_nyo.jpg,mya_yeik_nyo.jpg,http://localhost/travel/images/hotel/upload/logo/mya_yeik_nyo.jpg,96.1504,16.8303,2/9/2015,26/08/2015
3,1,Yangon,1-2-3-,walking-staying-relaxing-,Sedona Hotel,,Small to medium-sized hotel establishments offer a limited amount of on-site amenties.Economy hotels are small to medium-sized hotel establishments that offer basic accommodations with little to no services. Extended hotelss are small to medium-sized hotels that offer longer term full service accommodations compared to a traditional hotel.,yangon- No19- block2- university road- Yangon,134234234,234234234,sedona@gmail.com,sedona.com.com,sedona3.jpg,http://localhost/travel/images/hotel/upload/sedona3.jpg,sedona.jpg,http://localhost/travel/images/hotel/upload/logo/sedona.jpg,96.1555,16.8298,2/9/2015,27/08/2015
