id,cityId,city,tagId,tag,name,description,address,star,contact,image,image_url,longitude,latitude,updated_date,created_date
3,2,Mandalay,2,places,,ffffghfghfg,,,,yangon4.png,http://localhost/travel/images/info/upload/yangon4.png,,,28/07/2015,28/07/2015
4,2,Mandalay,2,places,,sdfsdfsdf,,,,yangon7.png,http://localhost/travel/images/info/upload/yangon7.png,,,28/07/2015,28/07/2015
5,2,Mandalay,1,to do,,<p><em><strong>you should write description  here</strong></em></p>,,,,taunggyi.jpg,http://localhost/travel/images/info/upload/taunggyi.jpg,,,28/07/2015,28/07/2015
6,1,Yangon,2,places,park Royal,description here,yan kin,,9877654,,,1,1,28/07/2015,28/07/2015
7,1,Yangon,1,to do,sdfsdf,<p>desdfsdfsdfsdfsdfsdfsd</p>,gdfgf,,dfg,,,0,0,28/07/2015,28/07/2015
8,2,Mandalay,2,places,,description here,,,,yangon9.png,http://localhost/travel/images/info/upload/yangon9.png,,,28/07/2015,28/07/2015
9,2,Mandalay,2,places,,ffffghfghfg,,,,yangon3.png,http://localhost/travel/images/info/upload/yangon3.png,,,28/07/2015,28/07/2015
