id,category,keyword,updated_date,created_date
1,activities,walking,21/08/2015,21/08/2015
2,attraction,pagoda,21/08/2015,21/08/2015
3,hotel,staying,21/08/2015,21/08/2015
4,restaurant,eat,21/08/2015,21/08/2015
5,activities,food,21/08/2015,21/08/2015
