id,cityId,city,tagId,tag,classification,name,description,promotion,address,price_range,contact,image,image_url,longitude,latitude,updated_date,created_date
3,2,Mandalay,2,places,2,aung,description here,no,yangon,,92342343,park_royal.jpg,http://localhost/travel/images/restaurant/upload/park_royal.jpg,1.12312,1.232,0000-00-00,0000-00-00
6,1,Yangon,2,places,ddaf,aung see sein,description here,no,yangon,,9324234,taunggyi.jpg,http://localhost/travel/images/restaurant/upload/taunggyi.jpg,1,1,0000-00-00,0000-00-00
7,2,Mandalay,2,places,1,aung see sein,description here,no,yangon,,9334543543,mandalay20.jpg,http://localhost/travel/images/restaurant/upload/mandalay20.jpg,1.23123,1.32423,0000-00-00,0000-00-00
9,6,Chanung Thar,2,places,1,season,description here,no,yangon,120,0934324234,yangon1.png,http://localhost/travel/images/restaurant/upload/yangon1.png,1,1,0000-00-00,2015-07-22
10,4,Bagan,2,places,asdsa,dasdasds,description here,sdsd,asdasd,,96787678,sedona1.jpg,http://localhost/travel/images/restaurant/upload/sedona1.jpg,12,12,0000-00-00,0000-00-00
11,6,Chanung Thar,,,1,season,description here,no,yangon,,934324234,,,1,1,0000-00-00,0000-00-00
12,6,Chanung Thar,2,places,1,season,description here,no,yangon,,934324234,,,1,1,0000-00-00,0000-00-00
