id,cityId,city_name,tagId,tag_keyword,name,rating,description,address,longitude,latitude,updated_date,created_date
1,1,Yangon,13-,cinema-,Thamada,,Walking (also known as ambulation) is one of the main gaits of locomotion among legged animals, and is typically slower than running and other gaits. Walking is defined by an 'inverted pendulum' gait in which the body vaults over the stiff limb or limbs with each step. This applies regardless of the number of limbs - even arthropods, with six, eight or more limbs, walk.In the United Kingdom and Ireland, the term walking is used to describe both walking in a park or trekking in the Alps. However, in canada and the United states the term for a long, vigorous walk is hiking, while the word walking covers shorter walks, especially in an urban setting,yangon,96.1588,16.7824,02/09/2015,30/07/2015
2,1,Yangon,4-,swimming-,University swimming pool,,swimming is the self-propulsion of a person through water or another liquid, usually for the purpose of recreation , sport, exercose , or survivall. Locomotion is achieved through coordinated movement of the limbs, the body, or both. Humans are able to hold their breath underwater and undertake rudimentary locomotive swimming within weeks of birth, as an evolutionary response.Swimming is consistently found to be among the top recreational activities undertaken by the public and in some countries, swimming lessons are a compulsory part of the educational curriculum. As a formalized sport, swimming features in a range of local, national, and international competitions, including every modern summer olympics, which occurs every four years.,Mandalay,96.137,16.8345,02/09/2015,30/07/2015
3,2,Mandalay,12-,visiting-,Shwe Da Gon,1,In the world of academia, a visiting scholar, visiting academic or visiting professor is a scholar from an institution who visits a host university, where he or she is projected to teach, lecture, or perform research on a topic the visitor is valued for. In many cases the position is not salaried because the scholar typically is salaried by his or her home institution, while some visiting positions are salaried. Typically, a position as visiting scholar is for a couple of months or even a year,though it can be extended. It is not unusual that host institutions provide accommodation for the visiting scholar. Typically, a visiting scholar is invited by the host institution. Being invited as a visiting scholar is often regarded as a significant accolade and recognition of the scholar's prominence in the field.,Yangon,96.1487,16.7984,02/09/2015,30/07/2015
4,1,Yangon,11-,shoppig-,junction square,,A retail or a shop is a business that presents a selection of goods and offers to trade or sell them to customers for money or other goods. Shopping is an activity in which a customer browses the available goods or services presented by one or more retailers with the intent to purchase a suitable selection of them. In some contexts it may be considered a leisure activity as well as an economic one.In modern days customer focus is more transferred towards online shopping; worldwide people order products from different regions and online retailers deliver their products to their homes, offices or wherever they want. The B2C (business to consumer) process has made it easy for consumers to select any product online from a retailer's website and have it delivered to the consumer within no time. The consumer does not need to consume his energy by going out to the stores and saves his time and cost of travelling.,yangon,96.131,16.8171,10/08/2015,10/08/2015
5,1,Yangon,9-,eating-,YKKO,,YKKO (an abbreviation of Yan Kin Kyay Oh, from Burmes: ရန္ကင္းေၾကးအိုး) is a restaurant chain in  Myanmar specializing in kyay Oh. The moniker comes from Yankin Townshi in Yangon, where the chain's first restaurant is located. Several YKKO restaurants exist in Yangon.The chain also offers Chinese food at its restaurants.,yangon,96.1633,16.7779,28/08/2015,28/08/2015
