id,name,image,image_url,description,updated_date,created_date
1,Yangon,yangon2.png,http://localhost/travel/images/city/upload/yangon2.png,<p>Yangon description is here</p>,7/28/2015,7/28/2015
2,Mandalay,mandalay15.jpg,http://localhost/travel/images/city/upload/mandalay15.jpg,Mandalay description is here,0000-00-00,0000-00-00
3,Shwe bo,shwebo1.jpg,http://localhost/travel/images/city/upload/shwebo1.jpg,<p>Shwe bo description is here</p>,7/28/2015,7/28/2015
4,Bagan,bagan1.jpg,http://localhost/travel/images/city/upload/bagan1.jpg,Bangan description is here,0000-00-00,0000-00-00
5,taung gyi,taunggyi.jpg,http://localhost/travel/images/city/upload/taunggyi.jpg,<p>Taungyi description is here</p>,7/28/2015,7/28/2015
6,Chanung Thar,chaung_thar1.jpg,http://localhost/travel/images/city/upload/chaung_thar1.jpg,Chaung Thar description is here,0000-00-00,0000-00-00
7,Inn lay,,,description here,0000-00-00,0000-00-00
